Estimated number of clusters: 2 
Estimated number of noise points: 398 
Homogeneity: 0.064 
Completeness: 1.000 
V-measure: 0.120 
Adjusted Rand Index: 0.000 
Adjusted Mutual Information: -0.000 

Cluster 1: 
AGISI-MI-029
AGISI-MI-063
AGISI-MI-148
AGISI-MI-217
AGISI-MI-284
AGISI-MI-026
AGISI-MI-061
AGISI-MI-100
AGISI-MI-116
AGISI-MI-196
AGISI-MI-537
AGISI-HI-002
AGISI-HI-029
AGISI-HI-081
AGISI-HI-165
AGISI-HI-342
AGISI-HI-453
AGISI-HI-547
AGISI-HI-100
AGISI-HI-116
AGISI-HI-537
AGISI-HI-095
AGISI0009
AGISI0015
C0003
C0005
C0007
C0014
P0014
P0019
A0005
A0006
A0010

Cluster 2: 
AGISI-MI-049
AGISI-MI-081
AGISI-MI-089
AGISI-HI-053
AGISI-HI-415
AGISI-HI-273
AGISI0004
AGISI0026
C0002
C0010
P0004
A0003

Noise: 
AGISI-MI-002
AGISI-MI-004
AGISI-MI-011
AGISI-MI-012
AGISI-MI-017
AGISI-MI-020
AGISI-MI-022
AGISI-MI-027
AGISI-MI-028
AGISI-MI-033
AGISI-MI-043
AGISI-MI-044
AGISI-MI-052
AGISI-MI-053
AGISI-MI-054
AGISI-MI-056
AGISI-MI-064
AGISI-MI-065
AGISI-MI-069
AGISI-MI-071
AGISI-MI-086
AGISI-MI-088
AGISI-MI-106
AGISI-MI-108
AGISI-MI-109
AGISI-MI-111
AGISI-MI-113
AGISI-MI-117
AGISI-MI-118
AGISI-MI-123
AGISI-MI-125
AGISI-MI-133
AGISI-MI-135
AGISI-MI-142
AGISI-MI-155
AGISI-MI-161
AGISI-MI-165
AGISI-MI-166
AGISI-MI-170
AGISI-MI-175
AGISI-MI-177
AGISI-MI-180
AGISI-MI-185
AGISI-MI-187
AGISI-MI-199
AGISI-MI-204
AGISI-MI-205
AGISI-MI-206
AGISI-MI-209
AGISI-MI-211
AGISI-MI-212
AGISI-MI-220
AGISI-MI-221
AGISI-MI-222
AGISI-MI-230
AGISI-MI-232
AGISI-MI-233
AGISI-MI-236
AGISI-MI-239
AGISI-MI-240
AGISI-MI-243
AGISI-MI-244
AGISI-MI-246
AGISI-MI-254
AGISI-MI-256
AGISI-MI-258
AGISI-MI-259
AGISI-MI-264
AGISI-MI-266
AGISI-MI-275
AGISI-MI-279
AGISI-MI-283
AGISI-MI-289
AGISI-MI-293
AGISI-MI-298
AGISI-MI-308
AGISI-MI-309
AGISI-MI-311
AGISI-MI-312
AGISI-MI-316
AGISI-MI-335
AGISI-MI-339
AGISI-MI-342
AGISI-MI-347
AGISI-MI-353
AGISI-MI-355
AGISI-MI-361
AGISI-MI-362
AGISI-MI-373
AGISI-MI-374
AGISI-MI-380
AGISI-MI-382
AGISI-MI-383
AGISI-MI-385
AGISI-MI-391
AGISI-MI-393
AGISI-MI-396
AGISI-MI-399
AGISI-MI-405
AGISI-MI-406
AGISI-MI-415
AGISI-MI-416
AGISI428
AGISI430
AGISI-MI-433
AGISI-MI-435
AGISI-MI-438
AGISI-MI-440
AGISI-MI-443
AGISI-MI-447
AGISI-MI-449
AGISI-MI-453
AGISI-MI-460
AGISI-MI-466
AGISI-MI-470
AGISI-MI-471
AGISI-MI-476
AGISI-MI-479
AGISI-MI-482
AGISI-MI-483
AGISI-MI-485
AGISI-MI-488
AGISI-MI-489
AGISI-MI-490
AGISI-MI-494
AGISI-MI-497
AGISI-MI-503
AGISI-MI-505
AGISI-MI-507
AGISI-MI-510
AGISI-MI-513
AGISI-MI-521
AGISI-MI-522
AGISI-MI-527
AGISI-MI-533
AGISI-MI-538
AGISI-MI-543
AGISI-MI-547
AGISI-MI-548
AGISI-MI-549
AGISI-MI-550
AGISI-MI-551
AGISI-MI-553
AGISI-MI-556
AGISI-MI-557
AGISI-MI-003
AGISI-MI-009
AGISI-MI-015
AGISI-MI-032
AGISI-MI-035
AGISI-MI-039
AGISI-MI-046
AGISI-MI-048
AGISI-MI-068
AGISI-MI-080
AGISI-MI-082
AGISI-MI-094
AGISI-MI-121
AGISI-MI-130
AGISI-MI-131
AGISI-MI-136
AGISI-MI-141
AGISI-MI-145
AGISI-MI-153
AGISI-MI-176
AGISI-MI-179
AGISI-MI-189
AGISI-MI-192
AGISI-MI-194
AGISI-MI-213
AGISI-MI-219
AGISI-MI-228
AGISI-MI-231
AGISI-MI-247
AGISI-MI-251
AGISI-MI-253
AGISI-MI-257
AGISI-MI-261
AGISI-MI-270
AGISI-MI-273
AGISI-MI-277
AGISI-MI-296
AGISI-MI-329
AGISI-MI-340
AGISI-MI-351
AGISI-MI-370
AGISI-MI-375
AGISI-MI-377
AGISI-MI-394
AGISI-MI-402
AGISI-MI-426
AGISI-MI-436
AGISI-MI-448
AGISI-MI-459
AGISI-MI-481
AGISI-MI-487
AGISI-MI-519
AGISI-MI-520
AGISI-MI-554
AGISI-HI-004
AGISI-HI-027
AGISI-HI-028
AGISI-HI-033
AGISI-HI-049
AGISI-HI-052
AGISI-HI-056
AGISI-HI-064
AGISI-HI-065
AGISI-HI-069
AGISI-HI-071
AGISI-HI-106
AGISI-HI-109
AGISI-HI-111
AGISI-HI-113
AGISI-HI-117
AGISI-HI-142
AGISI-HI-155
AGISI-HI-166
AGISI-HI-170
AGISI-HI-175
AGISI-HI-180
AGISI-HI-187
AGISI-HI-205
AGISI-HI-206
AGISI-HI-211
AGISI-HI-217
AGISI-HI-220
AGISI-HI-221
AGISI-HI-230
AGISI-HI-232
AGISI-HI-239
AGISI-HI-243
AGISI-HI-244
AGISI-HI-246
AGISI-HI-256
AGISI-HI-259
AGISI-HI-266
AGISI-HI-279
AGISI-HI-283
AGISI-HI-284
AGISI-HI-312
AGISI-HI-316
AGISI-HI-335
AGISI-HI-339
AGISI-HI-347
AGISI-HI-353
AGISI-HI-362
AGISI-HI-373
AGISI-HI-380
AGISI-HI-382
AGISI-HI-383
AGISI-HI-385
AGISI-HI-391
AGISI-HI-399
AGISI-HI-428
AGISI-HI-433
AGISI-HI-438
AGISI-HI-443
AGISI-HI-447
AGISI-HI-449
AGISI-HI-466
AGISI-HI-471
AGISI-HI-476
AGISI-HI-479
AGISI-HI-483
AGISI-HI-488
AGISI-HI-489
AGISI-HI-490
AGISI-HI-494
AGISI-HI-497
AGISI-HI-503
AGISI-HI-507
AGISI-HI-533
AGISI-HI-538
AGISI-HI-543
AGISI-HI-548
AGISI-HI-549
AGISI-HI-553
AGISI-HI-556
AGISI-HI-034
AGISI-HI-097
AGISI-HI-201
AGISI-HI-371
AGISI-HI-172
AGISI-HI-401
AGISI-HI-445
AGISI-HI-005
AGISI-HI-226
AGISI-HI-276
AGISI-HI-310
AGISI-HI-421
AGISI-HI-026
AGISI-HI-082
AGISI-HI-130
AGISI-HI-194
AGISI-HI-247
AGISI-HI-370
AGISI-HI-436
AGISI-HI-448
AGISI-HI-481
AGISI-HI-487
AGISI-HI-520
AGISI-HI-554
AGISI-HI-183
AGISI-HI-203
AGISI-HI-301
AGISI-HI-544
AGISI-HI-021
AGISI-HI-368
AGISI-HI-526
AGISI0001
AGISI0002
AGISI0003
AGISI0005
AGISI0006
AGISI0007
AGISI0008
AGISI0010
AGISI0011
AGISI0012
AGISI0013
AGISI0014
AGISI0016
AGISI0017
AGISI0018
AGISI0019
AGISI0020
AGISI0021
AGISI0022
AGISI0023
AGISI0024
AGISI0025
AGISI0027
AGISI0028
AGISI0029
AGISI0030
AGISI0031
AGISI0032
AGISI0033
AGISI0034
C0001
C0004
C0006
C0008
C0009
C0011
C0012
C0013
C0015
C0016
C0017
C0018
P0001
P0002
P0003
P0005
P0006
P0007
P0008
P0009
P0010
P0011
P0012
P0013
P0015
P0016
P0017
P0018
P0020
P0021
P0022
P0023
P0024
P0025
P0026
P0027
P0028
P0029
P0030
P0031
P0032
P0033
P0034
P0035
A0001
A0002
A0004
A0007
A0008
A0009
A0011
A0012
A0013
A0014
A0015
A0016
A0017
A0018
